G04 #@! TF.FileFunction,Copper,L2,Bot,Signal*
%FSLAX46Y46*%
G04 Gerber Fmt 4.6, Leading zero omitted, Abs format (unit mm)*
G04 Created by KiCad (PCBNEW 4.0.7) date Fri Dec 22 16:22:36 2017*
%MOMM*%
%LPD*%
G01*
G04 APERTURE LIST*
%ADD10C,0.100000*%
%ADD11C,0.300000*%
%ADD12R,2.510000X1.000000*%
%ADD13R,1.000000X2.510000*%
%ADD14C,0.600000*%
%ADD15C,0.750000*%
%ADD16C,1.000000*%
G04 APERTURE END LIST*
D10*
D11*
X68131457Y157576743D02*
X67917171Y157505314D01*
X67845743Y157433886D01*
X67774314Y157291029D01*
X67774314Y157076743D01*
X67845743Y156933886D01*
X67917171Y156862457D01*
X68060029Y156791029D01*
X68631457Y156791029D01*
X68631457Y158291029D01*
X68131457Y158291029D01*
X67988600Y158219600D01*
X67917171Y158148171D01*
X67845743Y158005314D01*
X67845743Y157862457D01*
X67917171Y157719600D01*
X67988600Y157648171D01*
X68131457Y157576743D01*
X68631457Y157576743D01*
X66917171Y156791029D02*
X67060029Y156862457D01*
X67131457Y157005314D01*
X67131457Y158291029D01*
X66345743Y156791029D02*
X66345743Y157791029D01*
X66345743Y158291029D02*
X66417172Y158219600D01*
X66345743Y158148171D01*
X66274315Y158219600D01*
X66345743Y158291029D01*
X66345743Y158148171D01*
X65631457Y157791029D02*
X65631457Y156791029D01*
X65631457Y157648171D02*
X65560029Y157719600D01*
X65417171Y157791029D01*
X65202886Y157791029D01*
X65060029Y157719600D01*
X64988600Y157576743D01*
X64988600Y156791029D01*
X64274314Y156791029D02*
X64274314Y158291029D01*
X64131457Y157362457D02*
X63702886Y156791029D01*
X63702886Y157791029D02*
X64274314Y157219600D01*
X62488600Y156862457D02*
X62631457Y156791029D01*
X62917171Y156791029D01*
X63060028Y156862457D01*
X63131457Y157005314D01*
X63131457Y157576743D01*
X63060028Y157719600D01*
X62917171Y157791029D01*
X62631457Y157791029D01*
X62488600Y157719600D01*
X62417171Y157576743D01*
X62417171Y157433886D01*
X63131457Y157291029D01*
X61774314Y157791029D02*
X61774314Y156791029D01*
X61774314Y157648171D02*
X61702886Y157719600D01*
X61560028Y157791029D01*
X61345743Y157791029D01*
X61202886Y157719600D01*
X61131457Y157576743D01*
X61131457Y156791029D01*
X59702885Y156791029D02*
X60417171Y156791029D01*
X60417171Y158291029D01*
X59202885Y157576743D02*
X58702885Y157576743D01*
X58488599Y156791029D02*
X59202885Y156791029D01*
X59202885Y158291029D01*
X58488599Y158291029D01*
X57845742Y156791029D02*
X57845742Y158291029D01*
X57488599Y158291029D01*
X57274314Y158219600D01*
X57131456Y158076743D01*
X57060028Y157933886D01*
X56988599Y157648171D01*
X56988599Y157433886D01*
X57060028Y157148171D01*
X57131456Y157005314D01*
X57274314Y156862457D01*
X57488599Y156791029D01*
X57845742Y156791029D01*
X56417171Y156862457D02*
X56274314Y156791029D01*
X55988599Y156791029D01*
X55845742Y156862457D01*
X55774314Y157005314D01*
X55774314Y157076743D01*
X55845742Y157219600D01*
X55988599Y157291029D01*
X56202885Y157291029D01*
X56345742Y157362457D01*
X56417171Y157505314D01*
X56417171Y157576743D01*
X56345742Y157719600D01*
X56202885Y157791029D01*
X55988599Y157791029D01*
X55845742Y157719600D01*
X53988599Y156791029D02*
X53988599Y158291029D01*
X53417171Y158291029D01*
X53274313Y158219600D01*
X53202885Y158148171D01*
X53131456Y158005314D01*
X53131456Y157791029D01*
X53202885Y157648171D01*
X53274313Y157576743D01*
X53417171Y157505314D01*
X53988599Y157505314D01*
X52274313Y156791029D02*
X52417171Y156862457D01*
X52488599Y157005314D01*
X52488599Y158291029D01*
X51060028Y157791029D02*
X51060028Y156791029D01*
X51702885Y157791029D02*
X51702885Y157005314D01*
X51631457Y156862457D01*
X51488599Y156791029D01*
X51274314Y156791029D01*
X51131457Y156862457D01*
X51060028Y156933886D01*
X50417171Y156862457D02*
X50274314Y156791029D01*
X49988599Y156791029D01*
X49845742Y156862457D01*
X49774314Y157005314D01*
X49774314Y157076743D01*
X49845742Y157219600D01*
X49988599Y157291029D01*
X50202885Y157291029D01*
X50345742Y157362457D01*
X50417171Y157505314D01*
X50417171Y157576743D01*
X50345742Y157719600D01*
X50202885Y157791029D01*
X49988599Y157791029D01*
X49845742Y157719600D01*
X47131456Y156933886D02*
X47202885Y156862457D01*
X47417171Y156791029D01*
X47560028Y156791029D01*
X47774313Y156862457D01*
X47917171Y157005314D01*
X47988599Y157148171D01*
X48060028Y157433886D01*
X48060028Y157648171D01*
X47988599Y157933886D01*
X47917171Y158076743D01*
X47774313Y158219600D01*
X47560028Y158291029D01*
X47417171Y158291029D01*
X47202885Y158219600D01*
X47131456Y158148171D01*
X46274313Y156791029D02*
X46417171Y156862457D01*
X46488599Y156933886D01*
X46560028Y157076743D01*
X46560028Y157505314D01*
X46488599Y157648171D01*
X46417171Y157719600D01*
X46274313Y157791029D01*
X46060028Y157791029D01*
X45917171Y157719600D01*
X45845742Y157648171D01*
X45774313Y157505314D01*
X45774313Y157076743D01*
X45845742Y156933886D01*
X45917171Y156862457D01*
X46060028Y156791029D01*
X46274313Y156791029D01*
X44917170Y156791029D02*
X45060028Y156862457D01*
X45131456Y157005314D01*
X45131456Y158291029D01*
X44131456Y156791029D02*
X44274314Y156862457D01*
X44345742Y156933886D01*
X44417171Y157076743D01*
X44417171Y157505314D01*
X44345742Y157648171D01*
X44274314Y157719600D01*
X44131456Y157791029D01*
X43917171Y157791029D01*
X43774314Y157719600D01*
X43702885Y157648171D01*
X43631456Y157505314D01*
X43631456Y157076743D01*
X43702885Y156933886D01*
X43774314Y156862457D01*
X43917171Y156791029D01*
X44131456Y156791029D01*
X42345742Y157791029D02*
X42345742Y156791029D01*
X42988599Y157791029D02*
X42988599Y157005314D01*
X42917171Y156862457D01*
X42774313Y156791029D01*
X42560028Y156791029D01*
X42417171Y156862457D01*
X42345742Y156933886D01*
X41631456Y156791029D02*
X41631456Y157791029D01*
X41631456Y157505314D02*
X41560028Y157648171D01*
X41488599Y157719600D01*
X41345742Y157791029D01*
X41202885Y157791029D01*
X38845742Y156791029D02*
X39560028Y156791029D01*
X39560028Y158291029D01*
X38345742Y157576743D02*
X37845742Y157576743D01*
X37631456Y156791029D02*
X38345742Y156791029D01*
X38345742Y158291029D01*
X37631456Y158291029D01*
X36988599Y156791029D02*
X36988599Y158291029D01*
X36631456Y158291029D01*
X36417171Y158219600D01*
X36274313Y158076743D01*
X36202885Y157933886D01*
X36131456Y157648171D01*
X36131456Y157433886D01*
X36202885Y157148171D01*
X36274313Y157005314D01*
X36417171Y156862457D01*
X36631456Y156791029D01*
X36988599Y156791029D01*
X34417171Y156862457D02*
X34274314Y156791029D01*
X33988599Y156791029D01*
X33845742Y156862457D01*
X33774314Y157005314D01*
X33774314Y157076743D01*
X33845742Y157219600D01*
X33988599Y157291029D01*
X34202885Y157291029D01*
X34345742Y157362457D01*
X34417171Y157505314D01*
X34417171Y157576743D01*
X34345742Y157719600D01*
X34202885Y157791029D01*
X33988599Y157791029D01*
X33845742Y157719600D01*
X33131456Y156791029D02*
X33131456Y158291029D01*
X32488599Y156791029D02*
X32488599Y157576743D01*
X32560028Y157719600D01*
X32702885Y157791029D01*
X32917170Y157791029D01*
X33060028Y157719600D01*
X33131456Y157648171D01*
X31774313Y156791029D02*
X31774313Y157791029D01*
X31774313Y158291029D02*
X31845742Y158219600D01*
X31774313Y158148171D01*
X31702885Y158219600D01*
X31774313Y158291029D01*
X31774313Y158148171D01*
X30488599Y156862457D02*
X30631456Y156791029D01*
X30917170Y156791029D01*
X31060027Y156862457D01*
X31131456Y157005314D01*
X31131456Y157576743D01*
X31060027Y157719600D01*
X30917170Y157791029D01*
X30631456Y157791029D01*
X30488599Y157719600D01*
X30417170Y157576743D01*
X30417170Y157433886D01*
X31131456Y157291029D01*
X29560027Y156791029D02*
X29702885Y156862457D01*
X29774313Y157005314D01*
X29774313Y158291029D01*
X28345742Y156791029D02*
X28345742Y158291029D01*
X28345742Y156862457D02*
X28488599Y156791029D01*
X28774313Y156791029D01*
X28917171Y156862457D01*
X28988599Y156933886D01*
X29060028Y157076743D01*
X29060028Y157505314D01*
X28988599Y157648171D01*
X28917171Y157719600D01*
X28774313Y157791029D01*
X28488599Y157791029D01*
X28345742Y157719600D01*
X66452886Y153669600D02*
X66524314Y153741029D01*
X66667171Y153955314D01*
X66738600Y154098171D01*
X66810029Y154312457D01*
X66881457Y154669600D01*
X66881457Y154955314D01*
X66810029Y155312457D01*
X66738600Y155526743D01*
X66667171Y155669600D01*
X66524314Y155883886D01*
X66452886Y155955314D01*
X65024314Y154383886D02*
X65095743Y154312457D01*
X65310029Y154241029D01*
X65452886Y154241029D01*
X65667171Y154312457D01*
X65810029Y154455314D01*
X65881457Y154598171D01*
X65952886Y154883886D01*
X65952886Y155098171D01*
X65881457Y155383886D01*
X65810029Y155526743D01*
X65667171Y155669600D01*
X65452886Y155741029D01*
X65310029Y155741029D01*
X65095743Y155669600D01*
X65024314Y155598171D01*
X64524314Y153669600D02*
X64452886Y153741029D01*
X64310029Y153955314D01*
X64238600Y154098171D01*
X64167171Y154312457D01*
X64095743Y154669600D01*
X64095743Y154955314D01*
X64167171Y155312457D01*
X64238600Y155526743D01*
X64310029Y155669600D01*
X64452886Y155883886D01*
X64524314Y155955314D01*
X62310029Y154669600D02*
X61595743Y154669600D01*
X62452886Y154241029D02*
X61952886Y155741029D01*
X61452886Y154241029D01*
X60952886Y154241029D02*
X60952886Y155241029D01*
X60952886Y154955314D02*
X60881458Y155098171D01*
X60810029Y155169600D01*
X60667172Y155241029D01*
X60524315Y155241029D01*
X60024315Y155241029D02*
X60024315Y154241029D01*
X60024315Y155098171D02*
X59952887Y155169600D01*
X59810029Y155241029D01*
X59595744Y155241029D01*
X59452887Y155169600D01*
X59381458Y155026743D01*
X59381458Y154241029D01*
X58095744Y154312457D02*
X58238601Y154241029D01*
X58524315Y154241029D01*
X58667172Y154312457D01*
X58738601Y154455314D01*
X58738601Y155026743D01*
X58667172Y155169600D01*
X58524315Y155241029D01*
X58238601Y155241029D01*
X58095744Y155169600D01*
X58024315Y155026743D01*
X58024315Y154883886D01*
X58738601Y154741029D01*
X55381458Y154241029D02*
X55881458Y154955314D01*
X56238601Y154241029D02*
X56238601Y155741029D01*
X55667173Y155741029D01*
X55524315Y155669600D01*
X55452887Y155598171D01*
X55381458Y155455314D01*
X55381458Y155241029D01*
X55452887Y155098171D01*
X55524315Y155026743D01*
X55667173Y154955314D01*
X56238601Y154955314D01*
X54524315Y154241029D02*
X54667173Y154312457D01*
X54738601Y154383886D01*
X54810030Y154526743D01*
X54810030Y154955314D01*
X54738601Y155098171D01*
X54667173Y155169600D01*
X54524315Y155241029D01*
X54310030Y155241029D01*
X54167173Y155169600D01*
X54095744Y155098171D01*
X54024315Y154955314D01*
X54024315Y154526743D01*
X54095744Y154383886D01*
X54167173Y154312457D01*
X54310030Y154241029D01*
X54524315Y154241029D01*
X53452887Y154312457D02*
X53310030Y154241029D01*
X53024315Y154241029D01*
X52881458Y154312457D01*
X52810030Y154455314D01*
X52810030Y154526743D01*
X52881458Y154669600D01*
X53024315Y154741029D01*
X53238601Y154741029D01*
X53381458Y154812457D01*
X53452887Y154955314D01*
X53452887Y155026743D01*
X53381458Y155169600D01*
X53238601Y155241029D01*
X53024315Y155241029D01*
X52881458Y155169600D01*
X52238601Y154312457D02*
X52095744Y154241029D01*
X51810029Y154241029D01*
X51667172Y154312457D01*
X51595744Y154455314D01*
X51595744Y154526743D01*
X51667172Y154669600D01*
X51810029Y154741029D01*
X52024315Y154741029D01*
X52167172Y154812457D01*
X52238601Y154955314D01*
X52238601Y155026743D01*
X52167172Y155169600D01*
X52024315Y155241029D01*
X51810029Y155241029D01*
X51667172Y155169600D01*
X50952886Y154241029D02*
X50952886Y155241029D01*
X50952886Y155741029D02*
X51024315Y155669600D01*
X50952886Y155598171D01*
X50881458Y155669600D01*
X50952886Y155741029D01*
X50952886Y155598171D01*
X49595743Y155241029D02*
X49595743Y154241029D01*
X50238600Y155241029D02*
X50238600Y154455314D01*
X50167172Y154312457D01*
X50024314Y154241029D01*
X49810029Y154241029D01*
X49667172Y154312457D01*
X49595743Y154383886D01*
X48952886Y154312457D02*
X48810029Y154241029D01*
X48524314Y154241029D01*
X48381457Y154312457D01*
X48310029Y154455314D01*
X48310029Y154526743D01*
X48381457Y154669600D01*
X48524314Y154741029D01*
X48738600Y154741029D01*
X48881457Y154812457D01*
X48952886Y154955314D01*
X48952886Y155026743D01*
X48881457Y155169600D01*
X48738600Y155241029D01*
X48524314Y155241029D01*
X48381457Y155169600D01*
X45667171Y154383886D02*
X45738600Y154312457D01*
X45952886Y154241029D01*
X46095743Y154241029D01*
X46310028Y154312457D01*
X46452886Y154455314D01*
X46524314Y154598171D01*
X46595743Y154883886D01*
X46595743Y155098171D01*
X46524314Y155383886D01*
X46452886Y155526743D01*
X46310028Y155669600D01*
X46095743Y155741029D01*
X45952886Y155741029D01*
X45738600Y155669600D01*
X45667171Y155598171D01*
X44167171Y154383886D02*
X44238600Y154312457D01*
X44452886Y154241029D01*
X44595743Y154241029D01*
X44810028Y154312457D01*
X44952886Y154455314D01*
X45024314Y154598171D01*
X45095743Y154883886D01*
X45095743Y155098171D01*
X45024314Y155383886D01*
X44952886Y155526743D01*
X44810028Y155669600D01*
X44595743Y155741029D01*
X44452886Y155741029D01*
X44238600Y155669600D01*
X44167171Y155598171D01*
X43524314Y154812457D02*
X42381457Y154812457D01*
X41167171Y155026743D02*
X40952885Y154955314D01*
X40881457Y154883886D01*
X40810028Y154741029D01*
X40810028Y154526743D01*
X40881457Y154383886D01*
X40952885Y154312457D01*
X41095743Y154241029D01*
X41667171Y154241029D01*
X41667171Y155741029D01*
X41167171Y155741029D01*
X41024314Y155669600D01*
X40952885Y155598171D01*
X40881457Y155455314D01*
X40881457Y155312457D01*
X40952885Y155169600D01*
X41024314Y155098171D01*
X41167171Y155026743D01*
X41667171Y155026743D01*
X39881457Y154955314D02*
X39881457Y154241029D01*
X40381457Y155741029D02*
X39881457Y154955314D01*
X39381457Y155741029D01*
X38881457Y154812457D02*
X37738600Y154812457D01*
X37024314Y154241029D02*
X37024314Y155741029D01*
X36167171Y154241029D01*
X36167171Y155741029D01*
X34595742Y154383886D02*
X34667171Y154312457D01*
X34881457Y154241029D01*
X35024314Y154241029D01*
X35238599Y154312457D01*
X35381457Y154455314D01*
X35452885Y154598171D01*
X35524314Y154883886D01*
X35524314Y155098171D01*
X35452885Y155383886D01*
X35381457Y155526743D01*
X35238599Y155669600D01*
X35024314Y155741029D01*
X34881457Y155741029D01*
X34667171Y155669600D01*
X34595742Y155598171D01*
X33952885Y154812457D02*
X32810028Y154812457D01*
X32167171Y154312457D02*
X31952885Y154241029D01*
X31595742Y154241029D01*
X31452885Y154312457D01*
X31381456Y154383886D01*
X31310028Y154526743D01*
X31310028Y154669600D01*
X31381456Y154812457D01*
X31452885Y154883886D01*
X31595742Y154955314D01*
X31881456Y155026743D01*
X32024314Y155098171D01*
X32095742Y155169600D01*
X32167171Y155312457D01*
X32167171Y155455314D01*
X32095742Y155598171D01*
X32024314Y155669600D01*
X31881456Y155741029D01*
X31524314Y155741029D01*
X31310028Y155669600D01*
X30738600Y154669600D02*
X30024314Y154669600D01*
X30881457Y154241029D02*
X30381457Y155741029D01*
X29881457Y154241029D01*
X62524314Y151762457D02*
X62310028Y151691029D01*
X61952885Y151691029D01*
X61810028Y151762457D01*
X61738599Y151833886D01*
X61667171Y151976743D01*
X61667171Y152119600D01*
X61738599Y152262457D01*
X61810028Y152333886D01*
X61952885Y152405314D01*
X62238599Y152476743D01*
X62381457Y152548171D01*
X62452885Y152619600D01*
X62524314Y152762457D01*
X62524314Y152905314D01*
X62452885Y153048171D01*
X62381457Y153119600D01*
X62238599Y153191029D01*
X61881457Y153191029D01*
X61667171Y153119600D01*
X61024314Y151691029D02*
X61024314Y153191029D01*
X60524314Y152119600D01*
X60024314Y153191029D01*
X60024314Y151691029D01*
X59310028Y151691029D02*
X59310028Y153191029D01*
X58952885Y153191029D01*
X58738600Y153119600D01*
X58595742Y152976743D01*
X58524314Y152833886D01*
X58452885Y152548171D01*
X58452885Y152333886D01*
X58524314Y152048171D01*
X58595742Y151905314D01*
X58738600Y151762457D01*
X58952885Y151691029D01*
X59310028Y151691029D01*
X56881457Y153191029D02*
X56381457Y151691029D01*
X55881457Y153191029D01*
X54810029Y151762457D02*
X54952886Y151691029D01*
X55238600Y151691029D01*
X55381457Y151762457D01*
X55452886Y151905314D01*
X55452886Y152476743D01*
X55381457Y152619600D01*
X55238600Y152691029D01*
X54952886Y152691029D01*
X54810029Y152619600D01*
X54738600Y152476743D01*
X54738600Y152333886D01*
X55452886Y152191029D01*
X54095743Y151691029D02*
X54095743Y152691029D01*
X54095743Y152405314D02*
X54024315Y152548171D01*
X53952886Y152619600D01*
X53810029Y152691029D01*
X53667172Y152691029D01*
X53238601Y151762457D02*
X53095744Y151691029D01*
X52810029Y151691029D01*
X52667172Y151762457D01*
X52595744Y151905314D01*
X52595744Y151976743D01*
X52667172Y152119600D01*
X52810029Y152191029D01*
X53024315Y152191029D01*
X53167172Y152262457D01*
X53238601Y152405314D01*
X53238601Y152476743D01*
X53167172Y152619600D01*
X53024315Y152691029D01*
X52810029Y152691029D01*
X52667172Y152619600D01*
X51952886Y151691029D02*
X51952886Y152691029D01*
X51952886Y153191029D02*
X52024315Y153119600D01*
X51952886Y153048171D01*
X51881458Y153119600D01*
X51952886Y153191029D01*
X51952886Y153048171D01*
X51024314Y151691029D02*
X51167172Y151762457D01*
X51238600Y151833886D01*
X51310029Y151976743D01*
X51310029Y152405314D01*
X51238600Y152548171D01*
X51167172Y152619600D01*
X51024314Y152691029D01*
X50810029Y152691029D01*
X50667172Y152619600D01*
X50595743Y152548171D01*
X50524314Y152405314D01*
X50524314Y151976743D01*
X50595743Y151833886D01*
X50667172Y151762457D01*
X50810029Y151691029D01*
X51024314Y151691029D01*
X49881457Y152691029D02*
X49881457Y151691029D01*
X49881457Y152548171D02*
X49810029Y152619600D01*
X49667171Y152691029D01*
X49452886Y152691029D01*
X49310029Y152619600D01*
X49238600Y152476743D01*
X49238600Y151691029D01*
X47381457Y151691029D02*
X47381457Y153191029D01*
X47024314Y153191029D01*
X46810029Y153119600D01*
X46667171Y152976743D01*
X46595743Y152833886D01*
X46524314Y152548171D01*
X46524314Y152333886D01*
X46595743Y152048171D01*
X46667171Y151905314D01*
X46810029Y151762457D01*
X47024314Y151691029D01*
X47381457Y151691029D01*
X45238600Y151691029D02*
X45238600Y152476743D01*
X45310029Y152619600D01*
X45452886Y152691029D01*
X45738600Y152691029D01*
X45881457Y152619600D01*
X45238600Y151762457D02*
X45381457Y151691029D01*
X45738600Y151691029D01*
X45881457Y151762457D01*
X45952886Y151905314D01*
X45952886Y152048171D01*
X45881457Y152191029D01*
X45738600Y152262457D01*
X45381457Y152262457D01*
X45238600Y152333886D01*
X43881457Y151691029D02*
X43881457Y152476743D01*
X43952886Y152619600D01*
X44095743Y152691029D01*
X44381457Y152691029D01*
X44524314Y152619600D01*
X43881457Y151762457D02*
X44024314Y151691029D01*
X44381457Y151691029D01*
X44524314Y151762457D01*
X44595743Y151905314D01*
X44595743Y152048171D01*
X44524314Y152191029D01*
X44381457Y152262457D01*
X44024314Y152262457D01*
X43881457Y152333886D01*
X43167171Y152691029D02*
X43167171Y151691029D01*
X43167171Y152548171D02*
X43095743Y152619600D01*
X42952885Y152691029D01*
X42738600Y152691029D01*
X42595743Y152619600D01*
X42524314Y152476743D01*
X42524314Y151691029D01*
X40810028Y153191029D02*
X40452885Y151691029D01*
X40167171Y152762457D01*
X39881457Y151691029D01*
X39524314Y153191029D01*
X39095742Y152691029D02*
X38738599Y151691029D01*
X38381457Y152691029D02*
X38738599Y151691029D01*
X38881457Y151333886D01*
X38952885Y151262457D01*
X39095742Y151191029D01*
X37810028Y152691029D02*
X37810028Y151691029D01*
X37810028Y152548171D02*
X37738600Y152619600D01*
X37595742Y152691029D01*
X37381457Y152691029D01*
X37238600Y152619600D01*
X37167171Y152476743D01*
X37167171Y151691029D01*
X35881457Y151762457D02*
X36024314Y151691029D01*
X36310028Y151691029D01*
X36452885Y151762457D01*
X36524314Y151905314D01*
X36524314Y152476743D01*
X36452885Y152619600D01*
X36310028Y152691029D01*
X36024314Y152691029D01*
X35881457Y152619600D01*
X35810028Y152476743D01*
X35810028Y152333886D01*
X36524314Y152191029D01*
X35167171Y152691029D02*
X35167171Y151691029D01*
X35167171Y152548171D02*
X35095743Y152619600D01*
X34952885Y152691029D01*
X34738600Y152691029D01*
X34595743Y152619600D01*
X34524314Y152476743D01*
X34524314Y151691029D01*
X63417173Y149141029D02*
X63417173Y150641029D01*
X62774316Y149141029D02*
X62774316Y149926743D01*
X62845745Y150069600D01*
X62988602Y150141029D01*
X63202887Y150141029D01*
X63345745Y150069600D01*
X63417173Y149998171D01*
X62274316Y150141029D02*
X61702887Y150141029D01*
X62060030Y150641029D02*
X62060030Y149355314D01*
X61988602Y149212457D01*
X61845744Y149141029D01*
X61702887Y149141029D01*
X61417173Y150141029D02*
X60845744Y150141029D01*
X61202887Y150641029D02*
X61202887Y149355314D01*
X61131459Y149212457D01*
X60988601Y149141029D01*
X60845744Y149141029D01*
X60345744Y150141029D02*
X60345744Y148641029D01*
X60345744Y150069600D02*
X60202887Y150141029D01*
X59917173Y150141029D01*
X59774316Y150069600D01*
X59702887Y149998171D01*
X59631458Y149855314D01*
X59631458Y149426743D01*
X59702887Y149283886D01*
X59774316Y149212457D01*
X59917173Y149141029D01*
X60202887Y149141029D01*
X60345744Y149212457D01*
X58988601Y149283886D02*
X58917173Y149212457D01*
X58988601Y149141029D01*
X59060030Y149212457D01*
X58988601Y149283886D01*
X58988601Y149141029D01*
X58988601Y150069600D02*
X58917173Y149998171D01*
X58988601Y149926743D01*
X59060030Y149998171D01*
X58988601Y150069600D01*
X58988601Y149926743D01*
X57202887Y150712457D02*
X58488601Y148783886D01*
X55631458Y150712457D02*
X56917172Y148783886D01*
X55274314Y150141029D02*
X54988600Y149141029D01*
X54702886Y149855314D01*
X54417171Y149141029D01*
X54131457Y150141029D01*
X53560028Y149141029D02*
X53560028Y150141029D01*
X53560028Y150641029D02*
X53631457Y150569600D01*
X53560028Y150498171D01*
X53488600Y150569600D01*
X53560028Y150641029D01*
X53560028Y150498171D01*
X52845742Y149141029D02*
X52845742Y150641029D01*
X52702885Y149712457D02*
X52274314Y149141029D01*
X52274314Y150141029D02*
X52845742Y149569600D01*
X51631456Y149141029D02*
X51631456Y150141029D01*
X51631456Y150641029D02*
X51702885Y150569600D01*
X51631456Y150498171D01*
X51560028Y150569600D01*
X51631456Y150641029D01*
X51631456Y150498171D01*
X50917170Y149283886D02*
X50845742Y149212457D01*
X50917170Y149141029D01*
X50988599Y149212457D01*
X50917170Y149283886D01*
X50917170Y149141029D01*
X50202884Y149141029D02*
X50202884Y150641029D01*
X50202884Y150069600D02*
X50060027Y150141029D01*
X49774313Y150141029D01*
X49631456Y150069600D01*
X49560027Y149998171D01*
X49488598Y149855314D01*
X49488598Y149426743D01*
X49560027Y149283886D01*
X49631456Y149212457D01*
X49774313Y149141029D01*
X50060027Y149141029D01*
X50202884Y149212457D01*
X48631455Y149141029D02*
X48774313Y149212457D01*
X48845741Y149355314D01*
X48845741Y150641029D01*
X48060027Y149141029D02*
X48060027Y150141029D01*
X48060027Y150641029D02*
X48131456Y150569600D01*
X48060027Y150498171D01*
X47988599Y150569600D01*
X48060027Y150641029D01*
X48060027Y150498171D01*
X47345741Y150141029D02*
X47345741Y149141029D01*
X47345741Y149998171D02*
X47274313Y150069600D01*
X47131455Y150141029D01*
X46917170Y150141029D01*
X46774313Y150069600D01*
X46702884Y149926743D01*
X46702884Y149141029D01*
X45988598Y149141029D02*
X45988598Y150641029D01*
X45845741Y149712457D02*
X45417170Y149141029D01*
X45417170Y150141029D02*
X45988598Y149569600D01*
X44202884Y149212457D02*
X44345741Y149141029D01*
X44631455Y149141029D01*
X44774312Y149212457D01*
X44845741Y149355314D01*
X44845741Y149926743D01*
X44774312Y150069600D01*
X44631455Y150141029D01*
X44345741Y150141029D01*
X44202884Y150069600D01*
X44131455Y149926743D01*
X44131455Y149783886D01*
X44845741Y149641029D01*
X43488598Y150141029D02*
X43488598Y149141029D01*
X43488598Y149998171D02*
X43417170Y150069600D01*
X43274312Y150141029D01*
X43060027Y150141029D01*
X42917170Y150069600D01*
X42845741Y149926743D01*
X42845741Y149141029D01*
X41488598Y149141029D02*
X41488598Y149926743D01*
X41560027Y150069600D01*
X41702884Y150141029D01*
X41988598Y150141029D01*
X42131455Y150069600D01*
X41488598Y149212457D02*
X41631455Y149141029D01*
X41988598Y149141029D01*
X42131455Y149212457D01*
X42202884Y149355314D01*
X42202884Y149498171D01*
X42131455Y149641029D01*
X41988598Y149712457D01*
X41631455Y149712457D01*
X41488598Y149783886D01*
X40774312Y149141029D02*
X40774312Y150141029D01*
X40774312Y149855314D02*
X40702884Y149998171D01*
X40631455Y150069600D01*
X40488598Y150141029D01*
X40345741Y150141029D01*
X39274313Y149212457D02*
X39417170Y149141029D01*
X39702884Y149141029D01*
X39845741Y149212457D01*
X39917170Y149355314D01*
X39917170Y149926743D01*
X39845741Y150069600D01*
X39702884Y150141029D01*
X39417170Y150141029D01*
X39274313Y150069600D01*
X39202884Y149926743D01*
X39202884Y149783886D01*
X39917170Y149641029D01*
X37917170Y149141029D02*
X37917170Y149926743D01*
X37988599Y150069600D01*
X38131456Y150141029D01*
X38417170Y150141029D01*
X38560027Y150069600D01*
X37917170Y149212457D02*
X38060027Y149141029D01*
X38417170Y149141029D01*
X38560027Y149212457D01*
X38631456Y149355314D01*
X38631456Y149498171D01*
X38560027Y149641029D01*
X38417170Y149712457D01*
X38060027Y149712457D01*
X37917170Y149783886D01*
X37202884Y149283886D02*
X37131456Y149212457D01*
X37202884Y149141029D01*
X37274313Y149212457D01*
X37202884Y149283886D01*
X37202884Y149141029D01*
X36274312Y149141029D02*
X36417170Y149212457D01*
X36488598Y149283886D01*
X36560027Y149426743D01*
X36560027Y149855314D01*
X36488598Y149998171D01*
X36417170Y150069600D01*
X36274312Y150141029D01*
X36060027Y150141029D01*
X35917170Y150069600D01*
X35845741Y149998171D01*
X35774312Y149855314D01*
X35774312Y149426743D01*
X35845741Y149283886D01*
X35917170Y149212457D01*
X36060027Y149141029D01*
X36274312Y149141029D01*
X35131455Y149141029D02*
X35131455Y150141029D01*
X35131455Y149855314D02*
X35060027Y149998171D01*
X34988598Y150069600D01*
X34845741Y150141029D01*
X34702884Y150141029D01*
X33560027Y150141029D02*
X33560027Y148926743D01*
X33631456Y148783886D01*
X33702884Y148712457D01*
X33845741Y148641029D01*
X34060027Y148641029D01*
X34202884Y148712457D01*
X33560027Y149212457D02*
X33702884Y149141029D01*
X33988598Y149141029D01*
X34131456Y149212457D01*
X34202884Y149283886D01*
X34274313Y149426743D01*
X34274313Y149855314D01*
X34202884Y149998171D01*
X34131456Y150069600D01*
X33988598Y150141029D01*
X33702884Y150141029D01*
X33560027Y150069600D01*
D12*
X22602000Y73761600D03*
X22602000Y78841600D03*
X22602000Y83921600D03*
X25912000Y76301600D03*
X25912000Y81381600D03*
X25912000Y86461600D03*
D13*
X16611600Y9376600D03*
X21691600Y9376600D03*
X26771600Y9376600D03*
X31851600Y9376600D03*
X14071600Y6066600D03*
X19151600Y6066600D03*
X24231600Y6066600D03*
X29311600Y6066600D03*
X44551600Y9376600D03*
X49631600Y9376600D03*
X54711600Y9376600D03*
X59791600Y9376600D03*
X42011600Y6066600D03*
X47091600Y6066600D03*
X52171600Y6066600D03*
X57251600Y6066600D03*
D12*
X22602000Y28041600D03*
X22602000Y33121600D03*
X22602000Y38201600D03*
X25912000Y30581600D03*
X25912000Y35661600D03*
X25912000Y40741600D03*
D13*
X72491600Y9402000D03*
X77571600Y9402000D03*
X82651600Y9402000D03*
X87731600Y9402000D03*
X69951600Y6092000D03*
X75031600Y6092000D03*
X80111600Y6092000D03*
X85191600Y6092000D03*
D12*
X22602000Y119481600D03*
X22602000Y124561600D03*
X22602000Y129641600D03*
X25912000Y122021600D03*
X25912000Y127101600D03*
X25912000Y132181600D03*
D14*
X11379200Y25222200D03*
X11379200Y32842200D03*
X11379200Y40462200D03*
X11379200Y48082200D03*
X11379200Y55702200D03*
X11379200Y63322200D03*
X11379200Y70942200D03*
X11379200Y78562200D03*
X11379200Y86182200D03*
X11379200Y93802200D03*
X11379200Y101422200D03*
X11379200Y109042200D03*
X11379200Y116662200D03*
X11379200Y124282200D03*
X11379200Y131902200D03*
X11379200Y139395200D03*
X11379200Y147015200D03*
X11379200Y17856200D03*
X9601200Y25222200D03*
X9601200Y32842200D03*
X9601200Y40462200D03*
X9601200Y48082200D03*
X9601200Y55702200D03*
X9601200Y63322200D03*
X9601200Y70942200D03*
X9601200Y78562200D03*
X9601200Y86182200D03*
X9601200Y93802200D03*
X9601200Y101422200D03*
X9601200Y109042200D03*
X9601200Y116662200D03*
X9601200Y124282200D03*
X9601200Y131902200D03*
X9601200Y139395200D03*
X9601200Y17856200D03*
X9601200Y147015200D03*
X24714200Y21158200D03*
X22301200Y1981200D03*
X7823200Y25222200D03*
X7823200Y32842200D03*
X7823200Y40462200D03*
X7823200Y48082200D03*
X7823200Y55702200D03*
X7823200Y63322200D03*
X7823200Y70942200D03*
X7823200Y78562200D03*
X7823200Y86182200D03*
X7823200Y93802200D03*
X7823200Y101422200D03*
X7823200Y109042200D03*
X7823200Y116662200D03*
X7823200Y124282200D03*
X7823200Y131902200D03*
X7823200Y139395200D03*
X7823200Y147015200D03*
X7823200Y17856200D03*
X21158200Y132664200D03*
X22174200Y121234200D03*
X21920200Y116916200D03*
X21666200Y109296200D03*
X21666200Y101676200D03*
X21666200Y94056200D03*
X20904200Y86690200D03*
X21920200Y71196200D03*
X21920200Y63576200D03*
X21920200Y55702200D03*
X21920200Y48082200D03*
X17221200Y41224200D03*
X21412200Y25476200D03*
X22428200Y17856200D03*
X21158200Y139776200D03*
X22174200Y29540200D03*
X22301200Y75260200D03*
X22174200Y147396200D03*
X28016200Y28651200D03*
X30556200Y3251200D03*
X14046200Y16586200D03*
X13538200Y60528200D03*
X13538200Y22174200D03*
X13538200Y67894200D03*
X13538200Y128854200D03*
X13538200Y121488200D03*
X13538200Y113614200D03*
X13538200Y106248200D03*
X13538200Y98374200D03*
X13538200Y90754200D03*
X13538200Y83134200D03*
X13538200Y52654200D03*
X13538200Y44780200D03*
X13538200Y29667200D03*
X13538200Y37160200D03*
X13538200Y136474200D03*
X13538200Y144094200D03*
X13538200Y75260200D03*
X34239200Y17856200D03*
X34239200Y147015200D03*
X34239200Y139395200D03*
X34239200Y131902200D03*
X34239200Y124282200D03*
X34239200Y116662200D03*
X34239200Y109042200D03*
X34239200Y101422200D03*
X34239200Y93802200D03*
X34239200Y86182200D03*
X34239200Y78562200D03*
X34239200Y70942200D03*
X34239200Y63322200D03*
X34239200Y55702200D03*
X34239200Y48082200D03*
X34239200Y40462200D03*
X34239200Y32842200D03*
X34239200Y25222200D03*
X43256200Y1981200D03*
X30683200Y147015200D03*
X30683200Y139395200D03*
X30683200Y131902200D03*
X30683200Y124282200D03*
X30683200Y116662200D03*
X30683200Y109042200D03*
X30683200Y101422200D03*
X30683200Y17856200D03*
X30683200Y32842200D03*
X30683200Y25222200D03*
X30683200Y48082200D03*
X30683200Y40462200D03*
X30683200Y63322200D03*
X30683200Y55702200D03*
X30683200Y78562200D03*
X30683200Y70942200D03*
X30683200Y93802200D03*
X30683200Y86182200D03*
X45669200Y25222200D03*
X45669200Y32842200D03*
X45669200Y40462200D03*
X45669200Y48082200D03*
X45669200Y55702200D03*
X45669200Y63322200D03*
X45669200Y70942200D03*
X45669200Y78562200D03*
X45669200Y86182200D03*
X45669200Y93802200D03*
X45669200Y101422200D03*
X45669200Y109042200D03*
X45669200Y116662200D03*
X45669200Y124282200D03*
X45669200Y131902200D03*
X45669200Y139395200D03*
X45669200Y147015200D03*
X45669200Y17856200D03*
X24714200Y112598200D03*
X47066200Y11506200D03*
X42113200Y25222200D03*
X42113200Y32842200D03*
X42113200Y40462200D03*
X42113200Y48082200D03*
X42113200Y55702200D03*
X42113200Y63322200D03*
X42113200Y70942200D03*
X42113200Y78562200D03*
X42113200Y86182200D03*
X42113200Y93802200D03*
X42113200Y101422200D03*
X42113200Y109042200D03*
X42113200Y116662200D03*
X42113200Y124282200D03*
X42113200Y131902200D03*
X42113200Y139395200D03*
X42113200Y147015200D03*
X42113200Y17856200D03*
X57099200Y147015200D03*
X57099200Y139395200D03*
X57099200Y131902200D03*
X57099200Y124282200D03*
X57099200Y116662200D03*
X57099200Y109042200D03*
X57099200Y101422200D03*
X57099200Y93802200D03*
X57099200Y86182200D03*
X57099200Y78562200D03*
X57099200Y70942200D03*
X57099200Y63322200D03*
X57099200Y55702200D03*
X57099200Y48082200D03*
X57099200Y40462200D03*
X57099200Y17856200D03*
X57099200Y32842200D03*
X57099200Y25222200D03*
X52146200Y10871200D03*
X53543200Y17856200D03*
X53543200Y147015200D03*
X53543200Y139395200D03*
X53543200Y131902200D03*
X53543200Y124282200D03*
X53543200Y116662200D03*
X53543200Y109042200D03*
X53543200Y101422200D03*
X53543200Y93802200D03*
X53543200Y86182200D03*
X53543200Y78562200D03*
X53543200Y70942200D03*
X53543200Y63322200D03*
X53543200Y55702200D03*
X53543200Y48082200D03*
X53543200Y40462200D03*
X53543200Y32842200D03*
X53543200Y25222200D03*
X68529200Y25222200D03*
X68529200Y32842200D03*
X68529200Y40462200D03*
X68529200Y48082200D03*
X68529200Y55702200D03*
X68529200Y63322200D03*
X68529200Y70942200D03*
X68529200Y78562200D03*
X68529200Y86182200D03*
X68529200Y93802200D03*
X68529200Y101422200D03*
X68529200Y109042200D03*
X68529200Y116662200D03*
X68529200Y124282200D03*
X68529200Y131902200D03*
X68529200Y139395200D03*
X68529200Y147015200D03*
X68529200Y17856200D03*
X49606200Y1981200D03*
X64973200Y25222200D03*
X64973200Y32842200D03*
X64973200Y40462200D03*
X64973200Y48082200D03*
X64973200Y55702200D03*
X64973200Y63322200D03*
X64973200Y70942200D03*
X64973200Y78562200D03*
X64973200Y86182200D03*
X64973200Y93802200D03*
X64973200Y101422200D03*
X64973200Y109042200D03*
X64973200Y116662200D03*
X64973200Y124282200D03*
X64973200Y131902200D03*
X64973200Y139395200D03*
X64973200Y147015200D03*
X64973200Y17856200D03*
X79959200Y25222200D03*
X79959200Y32842200D03*
X79959200Y40462200D03*
X79959200Y48082200D03*
X79959200Y55702200D03*
X79959200Y63322200D03*
X79959200Y70942200D03*
X79959200Y78562200D03*
X79959200Y86182200D03*
X79959200Y93802200D03*
X79959200Y101422200D03*
X79959200Y109042200D03*
X79959200Y116662200D03*
X79959200Y124282200D03*
X79959200Y131902200D03*
X79959200Y139395200D03*
X79959200Y17856200D03*
X79959200Y147015200D03*
X61036200Y3251200D03*
X76403200Y25222200D03*
X76403200Y32842200D03*
X76403200Y40462200D03*
X76403200Y48082200D03*
X76403200Y55702200D03*
X76403200Y63322200D03*
X76403200Y70942200D03*
X76403200Y78562200D03*
X76403200Y86182200D03*
X76403200Y93802200D03*
X76403200Y101422200D03*
X76403200Y109042200D03*
X76403200Y116662200D03*
X76403200Y124282200D03*
X76403200Y131902200D03*
X76403200Y139395200D03*
X76403200Y147015200D03*
X76403200Y17856200D03*
X91389200Y147015200D03*
X91389200Y139395200D03*
X91389200Y131902200D03*
X91389200Y124282200D03*
X91389200Y116662200D03*
X91389200Y109042200D03*
X91389200Y101422200D03*
X91389200Y93802200D03*
X91389200Y86182200D03*
X91389200Y78562200D03*
X91389200Y70942200D03*
X91389200Y63322200D03*
X91389200Y55702200D03*
X91389200Y48082200D03*
X91389200Y40462200D03*
X91389200Y17856200D03*
X91389200Y32842200D03*
X91389200Y25222200D03*
X76911200Y1981200D03*
X87833200Y147015200D03*
X87833200Y139395200D03*
X87833200Y131902200D03*
X87833200Y124282200D03*
X87833200Y116662200D03*
X87833200Y109042200D03*
X87833200Y101422200D03*
X87833200Y17856200D03*
X87833200Y32842200D03*
X87833200Y25222200D03*
X87833200Y48082200D03*
X87833200Y40462200D03*
X87833200Y63322200D03*
X87833200Y55702200D03*
X87833200Y78562200D03*
X87833200Y70942200D03*
X87833200Y93802200D03*
X87833200Y86182200D03*
X15316200Y131902200D03*
X15316200Y124536200D03*
X15316200Y116916200D03*
X15316200Y109296200D03*
X15316200Y101676200D03*
X15316200Y94056200D03*
X15316200Y86436200D03*
X15316200Y78816200D03*
X15316200Y71196200D03*
X15316200Y63576200D03*
X15316200Y55702200D03*
X15316200Y48082200D03*
X15316200Y39954200D03*
X15316200Y25476200D03*
X15316200Y17856200D03*
X15316200Y17856200D03*
X15316200Y139776200D03*
X15316200Y33096200D03*
X15316200Y146761200D03*
X37541200Y14681200D03*
X37541200Y10871200D03*
X43891200Y25222200D03*
X43891200Y32842200D03*
X43891200Y40462200D03*
X43891200Y48082200D03*
X43891200Y55702200D03*
X43891200Y63322200D03*
X43891200Y70942200D03*
X43891200Y78562200D03*
X43891200Y86182200D03*
X43891200Y93802200D03*
X43891200Y101422200D03*
X43891200Y109042200D03*
X43891200Y116662200D03*
X43891200Y124282200D03*
X43891200Y131902200D03*
X43891200Y139395200D03*
X43891200Y17856200D03*
X43891200Y147015200D03*
X32461200Y147015200D03*
X32461200Y17856200D03*
X32461200Y139395200D03*
X32461200Y131902200D03*
X32461200Y124282200D03*
X32461200Y116662200D03*
X32461200Y109042200D03*
X32461200Y101422200D03*
X32461200Y93802200D03*
X32461200Y86182200D03*
X32461200Y78562200D03*
X32461200Y70942200D03*
X32461200Y63322200D03*
X32461200Y55702200D03*
X32461200Y48082200D03*
X32461200Y40462200D03*
X32461200Y32842200D03*
X32461200Y25222200D03*
X55321200Y147015200D03*
X55321200Y17856200D03*
X55321200Y139395200D03*
X55321200Y131902200D03*
X55321200Y124282200D03*
X55321200Y116662200D03*
X55321200Y109042200D03*
X55321200Y101422200D03*
X55321200Y93802200D03*
X55321200Y86182200D03*
X55321200Y78562200D03*
X55321200Y70942200D03*
X55321200Y63322200D03*
X55321200Y55702200D03*
X55321200Y48082200D03*
X55321200Y40462200D03*
X55321200Y32842200D03*
X55321200Y25222200D03*
X66751200Y25222200D03*
X66751200Y32842200D03*
X66751200Y40462200D03*
X66751200Y48082200D03*
X66751200Y55702200D03*
X66751200Y63322200D03*
X66751200Y70942200D03*
X66751200Y78562200D03*
X66751200Y86182200D03*
X66751200Y93802200D03*
X66751200Y101422200D03*
X66751200Y109042200D03*
X66751200Y116662200D03*
X66751200Y124282200D03*
X66751200Y131902200D03*
X66751200Y139395200D03*
X66751200Y17856200D03*
X66751200Y147015200D03*
X78181200Y17856200D03*
X78181200Y25222200D03*
X78181200Y32842200D03*
X78181200Y40462200D03*
X78181200Y48082200D03*
X78181200Y55702200D03*
X78181200Y63322200D03*
X78181200Y70942200D03*
X78181200Y78562200D03*
X78181200Y86182200D03*
X78181200Y93802200D03*
X78181200Y101422200D03*
X78181200Y109042200D03*
X78181200Y116662200D03*
X78181200Y124282200D03*
X78181200Y131902200D03*
X78181200Y139395200D03*
X78181200Y147015200D03*
X89611200Y17856200D03*
X89611200Y124282200D03*
X89611200Y116662200D03*
X89611200Y109042200D03*
X89611200Y101422200D03*
X89611200Y93802200D03*
X89611200Y86182200D03*
X89611200Y78562200D03*
X89611200Y70942200D03*
X89611200Y63322200D03*
X89611200Y55702200D03*
X89611200Y48082200D03*
X89611200Y40462200D03*
X89611200Y32842200D03*
X89611200Y25222200D03*
X89611200Y139395200D03*
X89611200Y131902200D03*
X89611200Y147015200D03*
X25984200Y33858200D03*
X28016200Y38176200D03*
X24206200Y49479200D03*
X28016200Y57099200D03*
X24714200Y66751200D03*
X28016200Y74371200D03*
X28270200Y79832200D03*
X28016200Y84531200D03*
X24206200Y95199200D03*
X28016200Y102819200D03*
X28016200Y120345200D03*
X28651200Y125425200D03*
X28524200Y130251200D03*
X25095200Y140792200D03*
X27889200Y148285200D03*
D15*
X11379200Y17856200D02*
X11379200Y15364000D01*
X11379200Y15364000D02*
X16611600Y10131600D01*
X16611600Y10131600D02*
X16611600Y9376600D01*
X11379200Y17856200D02*
X11379200Y25222200D01*
X11379200Y25222200D02*
X11379200Y32842200D01*
X11379200Y32842200D02*
X11379200Y40462200D01*
X11379200Y40462200D02*
X11379200Y48082200D01*
X11379200Y48082200D02*
X11379200Y55702200D01*
X11379200Y55702200D02*
X11379200Y63322200D01*
X11379200Y63322200D02*
X11379200Y70942200D01*
X11379200Y70942200D02*
X11379200Y78562200D01*
X11379200Y78562200D02*
X11379200Y86182200D01*
X11379200Y86182200D02*
X11379200Y93802200D01*
X11379200Y93802200D02*
X11379200Y101422200D01*
X11379200Y101422200D02*
X11379200Y109042200D01*
X11379200Y109042200D02*
X11379200Y116662200D01*
X11379200Y116662200D02*
X11379200Y124282200D01*
X11379200Y124282200D02*
X11379200Y131902200D01*
X11379200Y131902200D02*
X11379200Y139395200D01*
X11379200Y139395200D02*
X11379200Y147015200D01*
X14071600Y6066600D02*
X14071600Y8071600D01*
X9601200Y17431936D02*
X9601200Y17856200D01*
X14071600Y8071600D02*
X9601200Y12542000D01*
X9601200Y12542000D02*
X9601200Y17431936D01*
X9601200Y131902200D02*
X9601200Y124282200D01*
X9601200Y124282200D02*
X9601200Y116662200D01*
X9601200Y116662200D02*
X9601200Y109042200D01*
X9601200Y109042200D02*
X9601200Y101422200D01*
X9601200Y101422200D02*
X9601200Y93802200D01*
X9601200Y93802200D02*
X9601200Y86182200D01*
X9601200Y86182200D02*
X9601200Y78562200D01*
X9601200Y78562200D02*
X9601200Y70942200D01*
X9601200Y70942200D02*
X9601200Y63322200D01*
X9601200Y63322200D02*
X9601200Y55702200D01*
X9601200Y55702200D02*
X9601200Y48082200D01*
X9601200Y48082200D02*
X9601200Y40462200D01*
X9601200Y40462200D02*
X9601200Y32842200D01*
X9601200Y32842200D02*
X9601200Y25222200D01*
X9601200Y25222200D02*
X9601200Y17856200D01*
X9601200Y147015200D02*
X9601200Y139395200D01*
X9601200Y139395200D02*
X9601200Y131902200D01*
D16*
X22602000Y28041600D02*
X24180800Y28041600D01*
X24714200Y27508200D02*
X24714200Y21158200D01*
X24180800Y28041600D02*
X24714200Y27508200D01*
D15*
X38681200Y1981200D02*
X22301200Y1981200D01*
X42011600Y6066600D02*
X42011600Y5311600D01*
X42011600Y5311600D02*
X38681200Y1981200D01*
X7823200Y17856200D02*
X7823200Y25222200D01*
X7823200Y25222200D02*
X7823200Y32842200D01*
X7823200Y32842200D02*
X7823200Y40462200D01*
X7823200Y40462200D02*
X7823200Y48082200D01*
X7823200Y48082200D02*
X7823200Y55702200D01*
X7823200Y55702200D02*
X7823200Y63322200D01*
X7823200Y63322200D02*
X7823200Y70942200D01*
X7823200Y70942200D02*
X7823200Y78562200D01*
X7823200Y78562200D02*
X7823200Y86182200D01*
X7823200Y86182200D02*
X7823200Y93802200D01*
X7823200Y93802200D02*
X7823200Y101422200D01*
X7823200Y101422200D02*
X7823200Y109042200D01*
X7823200Y109042200D02*
X7823200Y116662200D01*
X7823200Y116662200D02*
X7823200Y124282200D01*
X7823200Y124282200D02*
X7823200Y131902200D01*
X7823200Y131902200D02*
X7823200Y139395200D01*
X7823200Y139395200D02*
X7823200Y147015200D01*
X17221200Y16713200D02*
X21691600Y12242800D01*
X21691600Y12242800D02*
X21691600Y9376600D01*
X17221200Y16840200D02*
X17221200Y16713200D01*
X17221200Y131394200D02*
X17221200Y132029200D01*
X17221200Y132029200D02*
X17856200Y132664200D01*
X17221200Y133934200D02*
X17221200Y132918200D01*
X21158200Y132664200D02*
X17856200Y132664200D01*
X17221200Y133934200D02*
X17221200Y133299200D01*
X17221200Y138760200D02*
X17221200Y133934200D01*
X17856200Y132664200D02*
X17475200Y132664200D01*
X17221200Y133299200D02*
X17856200Y132664200D01*
X17475200Y132664200D02*
X17221200Y132918200D01*
X17221200Y121361200D02*
X17221200Y121615200D01*
X17221200Y121615200D02*
X17856200Y122250200D01*
X21158200Y122250200D02*
X17856200Y122250200D01*
X17856200Y122250200D02*
X17221200Y122250200D01*
X17221200Y123393200D02*
X17221200Y122885200D01*
X17221200Y122885200D02*
X17856200Y122250200D01*
X22174200Y121234200D02*
X21158200Y122250200D01*
X17221200Y131394200D02*
X17221200Y124790200D01*
X17221200Y124790200D02*
X17221200Y123393200D01*
X17221200Y115646200D02*
X17221200Y110312200D01*
X17221200Y116916200D02*
X17221200Y115646200D01*
X17221200Y115646200D02*
X17221200Y116281200D01*
X17221200Y116281200D02*
X17856200Y116916200D01*
X17221200Y118186200D02*
X17221200Y116916200D01*
X17221200Y120599200D02*
X17221200Y118186200D01*
X18475210Y116916200D02*
X17856200Y116916200D01*
X17856200Y116916200D02*
X17221200Y116916200D01*
X17221200Y118186200D02*
X17221200Y117551200D01*
X17221200Y117551200D02*
X17856200Y116916200D01*
X21920200Y116916200D02*
X18475210Y116916200D01*
X17221200Y110312200D02*
X17221200Y109296200D01*
X17221200Y110312200D02*
X17221200Y109931200D01*
X17221200Y109931200D02*
X17856200Y109296200D01*
X17221200Y108280200D02*
X17221200Y102946200D01*
X17221200Y109296200D02*
X17221200Y108280200D01*
X21666200Y109296200D02*
X17856200Y109296200D01*
X17856200Y109296200D02*
X17221200Y109296200D01*
X17221200Y108661200D02*
X17856200Y109296200D01*
X17221200Y108280200D02*
X17221200Y108661200D01*
X17221200Y102946200D02*
X17221200Y101676200D01*
X17221200Y102946200D02*
X17221200Y102311200D01*
X17221200Y102311200D02*
X17856200Y101676200D01*
X17221200Y100660200D02*
X17221200Y95072200D01*
X17221200Y101676200D02*
X17221200Y100660200D01*
X21666200Y101676200D02*
X17856200Y101676200D01*
X17856200Y101676200D02*
X17221200Y101676200D01*
X17221200Y100660200D02*
X17221200Y101041200D01*
X17221200Y101041200D02*
X17856200Y101676200D01*
X17221200Y95072200D02*
X17221200Y94056200D01*
X17221200Y94691200D02*
X17856200Y94056200D01*
X17221200Y95072200D02*
X17221200Y94691200D01*
X17221200Y93294200D02*
X17221200Y87452200D01*
X17221200Y94056200D02*
X17221200Y93294200D01*
X21666200Y94056200D02*
X17856200Y94056200D01*
X17856200Y94056200D02*
X17221200Y94056200D01*
X17221200Y93294200D02*
X17221200Y93421200D01*
X17221200Y93421200D02*
X17856200Y94056200D01*
X17221200Y87452200D02*
X17221200Y86690200D01*
X17221200Y87452200D02*
X17221200Y87325200D01*
X17221200Y87325200D02*
X17856200Y86690200D01*
X17221200Y85928200D02*
X17221200Y77165200D01*
X17221200Y86690200D02*
X17221200Y85928200D01*
X20904200Y86690200D02*
X17856200Y86690200D01*
X17221200Y85928200D02*
X17221200Y86055200D01*
X17856200Y86690200D02*
X17221200Y86690200D01*
X17221200Y86055200D02*
X17856200Y86690200D01*
X17221200Y64846200D02*
X17221200Y64211200D01*
X17221200Y64211200D02*
X17856200Y63576200D01*
X17221200Y64846200D02*
X17221200Y64084200D01*
X17221200Y64084200D02*
X17221200Y63576200D01*
X17856200Y63576200D02*
X17729200Y63576200D01*
X18110200Y63576200D02*
X17856200Y63576200D01*
X17856200Y63576200D02*
X17221200Y63576200D01*
X17221200Y62560200D02*
X17221200Y62941200D01*
X17221200Y62941200D02*
X17856200Y63576200D01*
X17221200Y72720200D02*
X17221200Y71196200D01*
X17221200Y75514200D02*
X17221200Y72720200D01*
X17221200Y72720200D02*
X17221200Y71831200D01*
X17221200Y71831200D02*
X17856200Y71196200D01*
X17221200Y69926200D02*
X17221200Y64846200D01*
X17221200Y69926200D02*
X17221200Y70561200D01*
X17221200Y71196200D02*
X17221200Y69926200D01*
X21920200Y71196200D02*
X17856200Y71196200D01*
X17856200Y71196200D02*
X17221200Y71196200D01*
X17221200Y70561200D02*
X17856200Y71196200D01*
X17221200Y64846200D02*
X17221200Y64465200D01*
X17221200Y62560200D02*
X17221200Y56718200D01*
X17221200Y63576200D02*
X17221200Y62560200D01*
X21920200Y63576200D02*
X18110200Y63576200D01*
X17221200Y62560200D02*
X17221200Y62687200D01*
X17221200Y56718200D02*
X17221200Y55702200D01*
X17221200Y56718200D02*
X17221200Y56337200D01*
X17221200Y56337200D02*
X17856200Y55702200D01*
X17221200Y54940200D02*
X17221200Y49098200D01*
X17221200Y55067200D02*
X17856200Y55702200D01*
X17221200Y55702200D02*
X17221200Y54940200D01*
X21920200Y55702200D02*
X17856200Y55702200D01*
X17856200Y55702200D02*
X17221200Y55702200D01*
X17221200Y54940200D02*
X17221200Y55067200D01*
X17221200Y49098200D02*
X17221200Y48082200D01*
X17221200Y49098200D02*
X17221200Y48717200D01*
X17221200Y48717200D02*
X17856200Y48082200D01*
X17221200Y47320200D02*
X17221200Y41224200D01*
X17221200Y48082200D02*
X17221200Y47320200D01*
X21920200Y48082200D02*
X17856200Y48082200D01*
X17856200Y48082200D02*
X17221200Y48082200D01*
X17221200Y47320200D02*
X17221200Y47447200D01*
X17221200Y47447200D02*
X17856200Y48082200D01*
X17221200Y41224200D02*
X17221200Y31699200D01*
X17221200Y24714200D02*
X17221200Y18872200D01*
X17221200Y25476200D02*
X17221200Y24714200D01*
X17221200Y24714200D02*
X17348200Y24714200D01*
X17348200Y24714200D02*
X18110200Y25476200D01*
X17221200Y26238200D02*
X17221200Y25476200D01*
X17221200Y30048200D02*
X17221200Y26238200D01*
X17348200Y26238200D02*
X18110200Y25476200D01*
X21412200Y25476200D02*
X18110200Y25476200D01*
X18110200Y25476200D02*
X17221200Y25476200D01*
X17221200Y26238200D02*
X17348200Y26238200D01*
X17221200Y18872200D02*
X17221200Y17856200D01*
X17221200Y18872200D02*
X17221200Y18491200D01*
X17221200Y18491200D02*
X17856200Y17856200D01*
X22428200Y17856200D02*
X17856200Y17856200D01*
X17221200Y16840200D02*
X17221200Y17221200D01*
X17856200Y17856200D02*
X17221200Y17856200D01*
X17221200Y17221200D02*
X17856200Y17856200D01*
X17221200Y138760200D02*
X17221200Y139141200D01*
X17221200Y139141200D02*
X17856200Y139776200D01*
X20733936Y139776200D02*
X17856200Y139776200D01*
X17221200Y140792200D02*
X17221200Y140411200D01*
X17856200Y139776200D02*
X17221200Y139776200D01*
X17221200Y140411200D02*
X17856200Y139776200D01*
X21158200Y139776200D02*
X20733936Y139776200D01*
X17221200Y132156200D02*
X17221200Y131394200D01*
X17221200Y132918200D02*
X17221200Y132156200D01*
X17221200Y31699200D02*
X17221200Y31572200D01*
X17221200Y31572200D02*
X17983200Y30810200D01*
X17221200Y30048200D02*
X17983200Y30810200D01*
X22174200Y29540200D02*
X20904200Y30810200D01*
X20904200Y30810200D02*
X17983200Y30810200D01*
X17983200Y30810200D02*
X17221200Y30810200D01*
X17983200Y76530200D02*
X17856200Y76530200D01*
X17856200Y76530200D02*
X17221200Y77165200D01*
X17221200Y75514200D02*
X17221200Y75768200D01*
X17221200Y75768200D02*
X17983200Y76530200D01*
X21031200Y76530200D02*
X17983200Y76530200D01*
X22301200Y75260200D02*
X21031200Y76530200D01*
X17983200Y76530200D02*
X17221200Y76530200D01*
X17221200Y17856200D02*
X17221200Y16840200D01*
X18491200Y147396200D02*
X17856200Y147396200D01*
X17856200Y147396200D02*
X17221200Y146761200D01*
X17221200Y146761200D02*
X17221200Y140792200D01*
X22174200Y147396200D02*
X18491200Y147396200D01*
X17221200Y140792200D02*
X17221200Y139776200D01*
X17221200Y139776200D02*
X17221200Y138760200D01*
X17221200Y123393200D02*
X17221200Y122758200D01*
X17221200Y122758200D02*
X17221200Y122250200D01*
X17221200Y122250200D02*
X17221200Y121742200D01*
X17221200Y121742200D02*
X17221200Y121361200D01*
X17221200Y121361200D02*
X17221200Y120599200D01*
X17221200Y77165200D02*
X17221200Y76530200D01*
X17221200Y76530200D02*
X17221200Y75514200D01*
X17221200Y31699200D02*
X17221200Y30810200D01*
X17221200Y30810200D02*
X17221200Y30048200D01*
D16*
X25912000Y30581600D02*
X27228800Y30581600D01*
X28016200Y29794200D02*
X28016200Y28651200D01*
X27228800Y30581600D02*
X28016200Y29794200D01*
D15*
X33731200Y3251200D02*
X30556200Y3251200D01*
X13538200Y22174200D02*
X13538200Y17094200D01*
X13538200Y17094200D02*
X14046200Y16586200D01*
X39856600Y9376600D02*
X33731200Y3251200D01*
X44551600Y9376600D02*
X39856600Y9376600D01*
X13538200Y67894200D02*
X13538200Y60528200D01*
X13538200Y60528200D02*
X13538200Y52654200D01*
X13538200Y129971800D02*
X13538200Y128854200D01*
X13538200Y128854200D02*
X13538200Y121488200D01*
X13538200Y120980200D02*
X13538200Y113614200D01*
X13538200Y113614200D02*
X13538200Y106248200D01*
X13538200Y106248200D02*
X13538200Y98374200D01*
X13538200Y98374200D02*
X13538200Y90754200D01*
X13538200Y90754200D02*
X13538200Y83134200D01*
X13538200Y83134200D02*
X13538200Y75260200D01*
X13538200Y75260200D02*
X13538200Y67894200D01*
X13538200Y52654200D02*
X13538200Y44780200D01*
X13538200Y44780200D02*
X13538200Y37160200D01*
X13538200Y37160200D02*
X13538200Y29667200D01*
X13538200Y144094200D02*
X13538200Y136474200D01*
X13538200Y136474200D02*
X13538200Y136093200D01*
X13538200Y121488200D02*
X13538200Y120980200D01*
X13538200Y136093200D02*
X13538200Y129971800D01*
X13538200Y29667200D02*
X13538200Y22174200D01*
X26771600Y9376600D02*
X28021600Y9376600D01*
X28021600Y9376600D02*
X34239200Y15594200D01*
X34239200Y15594200D02*
X34239200Y17431936D01*
X34239200Y17431936D02*
X34239200Y17856200D01*
X34239200Y139395200D02*
X34239200Y147015200D01*
X34239200Y131902200D02*
X34239200Y139395200D01*
X34239200Y124282200D02*
X34239200Y131902200D01*
X34239200Y116662200D02*
X34239200Y124282200D01*
X34239200Y109042200D02*
X34239200Y116662200D01*
X34239200Y17856200D02*
X34239200Y25222200D01*
X34239200Y101422200D02*
X34239200Y109042200D01*
X34239200Y93802200D02*
X34239200Y101422200D01*
X34239200Y86182200D02*
X34239200Y93802200D01*
X34239200Y78562200D02*
X34239200Y86182200D01*
X34239200Y70942200D02*
X34239200Y78562200D01*
X34239200Y63322200D02*
X34239200Y70942200D01*
X34239200Y55702200D02*
X34239200Y63322200D01*
X34239200Y48082200D02*
X34239200Y55702200D01*
X34239200Y40462200D02*
X34239200Y48082200D01*
X34239200Y32842200D02*
X34239200Y40462200D01*
X34239200Y25222200D02*
X34239200Y32842200D01*
X45796200Y1981200D02*
X43256200Y1981200D01*
X47066200Y3251200D02*
X45796200Y1981200D01*
X47066200Y5286200D02*
X47066200Y3251200D01*
X47091600Y6066600D02*
X47091600Y5311600D01*
X47091600Y5311600D02*
X47066200Y5286200D01*
X30683200Y139395200D02*
X30683200Y147015200D01*
X30683200Y131902200D02*
X30683200Y139395200D01*
X30683200Y124282200D02*
X30683200Y131902200D01*
X30683200Y116662200D02*
X30683200Y124282200D01*
X30683200Y109042200D02*
X30683200Y116662200D01*
X30683200Y101422200D02*
X30683200Y109042200D01*
X30683200Y32842200D02*
X30683200Y40462200D01*
X30683200Y25222200D02*
X30683200Y32842200D01*
X30683200Y17856200D02*
X30683200Y25222200D01*
X30683200Y48082200D02*
X30683200Y55702200D01*
X30683200Y40462200D02*
X30683200Y48082200D01*
X30683200Y63322200D02*
X30683200Y70942200D01*
X30683200Y55702200D02*
X30683200Y63322200D01*
X30683200Y78562200D02*
X30683200Y86182200D01*
X30683200Y70942200D02*
X30683200Y78562200D01*
X30683200Y93802200D02*
X30683200Y101422200D01*
X30683200Y86182200D02*
X30683200Y93802200D01*
X43764200Y12776200D02*
X45669200Y14681200D01*
X45669200Y14681200D02*
X45669200Y17856200D01*
X33604200Y12776200D02*
X43764200Y12776200D01*
X31851600Y11023600D02*
X33604200Y12776200D01*
X31851600Y9376600D02*
X31851600Y11023600D01*
X45669200Y25222200D02*
X45669200Y32842200D01*
X45669200Y32842200D02*
X45669200Y40462200D01*
X45669200Y40462200D02*
X45669200Y48082200D01*
X45669200Y48082200D02*
X45669200Y55702200D01*
X45669200Y55702200D02*
X45669200Y63322200D01*
X45669200Y63322200D02*
X45669200Y70942200D01*
X45669200Y70942200D02*
X45669200Y78562200D01*
X45669200Y78562200D02*
X45669200Y86182200D01*
X45669200Y86182200D02*
X45669200Y93802200D01*
X45669200Y93802200D02*
X45669200Y101422200D01*
X45669200Y101422200D02*
X45669200Y109042200D01*
X45669200Y109042200D02*
X45669200Y116662200D01*
X45669200Y116662200D02*
X45669200Y124282200D01*
X45669200Y124282200D02*
X45669200Y131902200D01*
X45669200Y131902200D02*
X45669200Y139395200D01*
X45669200Y139395200D02*
X45669200Y147015200D01*
X45669200Y17856200D02*
X45669200Y25222200D01*
D16*
X24053800Y119481600D02*
X24714200Y118821200D01*
X24714200Y118821200D02*
X24714200Y112598200D01*
X22602000Y119481600D02*
X24053800Y119481600D01*
D15*
X49195800Y9376600D02*
X47066200Y11506200D01*
X49631600Y9376600D02*
X49195800Y9376600D01*
X42113200Y17856200D02*
X42113200Y25222200D01*
X42113200Y25222200D02*
X42113200Y32842200D01*
X42113200Y32842200D02*
X42113200Y40462200D01*
X42113200Y40462200D02*
X42113200Y48082200D01*
X42113200Y48082200D02*
X42113200Y55702200D01*
X42113200Y55702200D02*
X42113200Y63322200D01*
X42113200Y63322200D02*
X42113200Y70942200D01*
X42113200Y70942200D02*
X42113200Y78562200D01*
X42113200Y78562200D02*
X42113200Y86182200D01*
X42113200Y86182200D02*
X42113200Y93802200D01*
X42113200Y93802200D02*
X42113200Y101422200D01*
X42113200Y101422200D02*
X42113200Y109042200D01*
X42113200Y109042200D02*
X42113200Y116662200D01*
X42113200Y116662200D02*
X42113200Y124282200D01*
X42113200Y124282200D02*
X42113200Y131902200D01*
X42113200Y131902200D02*
X42113200Y139395200D01*
X42113200Y139395200D02*
X42113200Y147015200D01*
X68502400Y12141200D02*
X62814200Y12141200D01*
X62814200Y12141200D02*
X57099200Y17856200D01*
X72491600Y9402000D02*
X71241600Y9402000D01*
X71241600Y9402000D02*
X68502400Y12141200D01*
X57099200Y139395200D02*
X57099200Y147015200D01*
X57099200Y131902200D02*
X57099200Y139395200D01*
X57099200Y124282200D02*
X57099200Y131902200D01*
X57099200Y116662200D02*
X57099200Y124282200D01*
X57099200Y109042200D02*
X57099200Y116662200D01*
X57099200Y101422200D02*
X57099200Y109042200D01*
X57099200Y93802200D02*
X57099200Y101422200D01*
X57099200Y86182200D02*
X57099200Y93802200D01*
X57099200Y78562200D02*
X57099200Y86182200D01*
X57099200Y70942200D02*
X57099200Y78562200D01*
X57099200Y63322200D02*
X57099200Y70942200D01*
X57099200Y55702200D02*
X57099200Y63322200D01*
X57099200Y48082200D02*
X57099200Y55702200D01*
X57099200Y40462200D02*
X57099200Y48082200D01*
X57099200Y32842200D02*
X57099200Y40462200D01*
X57099200Y25222200D02*
X57099200Y32842200D01*
X57099200Y17856200D02*
X57099200Y25222200D01*
X52146200Y10871200D02*
X52146200Y6092000D01*
X52146200Y6092000D02*
X52171600Y6066600D01*
X53543200Y139395200D02*
X53543200Y147015200D01*
X53543200Y131902200D02*
X53543200Y139395200D01*
X53543200Y124282200D02*
X53543200Y131902200D01*
X53543200Y116662200D02*
X53543200Y124282200D01*
X53543200Y109042200D02*
X53543200Y116662200D01*
X53543200Y101422200D02*
X53543200Y109042200D01*
X53543200Y93802200D02*
X53543200Y101422200D01*
X53543200Y86182200D02*
X53543200Y93802200D01*
X53543200Y78562200D02*
X53543200Y86182200D01*
X53543200Y70942200D02*
X53543200Y78562200D01*
X53543200Y63322200D02*
X53543200Y70942200D01*
X53543200Y55702200D02*
X53543200Y63322200D01*
X53543200Y48082200D02*
X53543200Y55702200D01*
X53543200Y40462200D02*
X53543200Y48082200D01*
X53543200Y32842200D02*
X53543200Y40462200D01*
X53543200Y25222200D02*
X53543200Y32842200D01*
X53543200Y17856200D02*
X53543200Y25222200D01*
X53543200Y17856200D02*
X53543200Y17431936D01*
X77571600Y9402000D02*
X77571600Y10157000D01*
X77571600Y10157000D02*
X69872400Y17856200D01*
X68953464Y17856200D02*
X68529200Y17856200D01*
X69872400Y17856200D02*
X68953464Y17856200D01*
X68529200Y17856200D02*
X68529200Y25222200D01*
X68529200Y25222200D02*
X68529200Y32842200D01*
X68529200Y32842200D02*
X68529200Y40462200D01*
X68529200Y40462200D02*
X68529200Y48082200D01*
X68529200Y48082200D02*
X68529200Y55702200D01*
X68529200Y55702200D02*
X68529200Y63322200D01*
X68529200Y63322200D02*
X68529200Y70942200D01*
X68529200Y70942200D02*
X68529200Y78562200D01*
X68529200Y78562200D02*
X68529200Y86182200D01*
X68529200Y86182200D02*
X68529200Y93802200D01*
X68529200Y93802200D02*
X68529200Y101422200D01*
X68529200Y101422200D02*
X68529200Y109042200D01*
X68529200Y109042200D02*
X68529200Y116662200D01*
X68529200Y116662200D02*
X68529200Y124282200D01*
X68529200Y124282200D02*
X68529200Y131902200D01*
X68529200Y131902200D02*
X68529200Y139395200D01*
X68529200Y139395200D02*
X68529200Y147015200D01*
X49606200Y1981200D02*
X52146200Y1981200D01*
X52146200Y1981200D02*
X54711600Y4546600D01*
X54711600Y4546600D02*
X54711600Y9376600D01*
X64973200Y25222200D02*
X64973200Y32842200D01*
X64973200Y32842200D02*
X64973200Y40462200D01*
X64973200Y40462200D02*
X64973200Y48082200D01*
X64973200Y48082200D02*
X64973200Y55702200D01*
X64973200Y55702200D02*
X64973200Y63322200D01*
X64973200Y63322200D02*
X64973200Y70942200D01*
X64973200Y70942200D02*
X64973200Y78562200D01*
X64973200Y78562200D02*
X64973200Y86182200D01*
X64973200Y86182200D02*
X64973200Y93802200D01*
X64973200Y93802200D02*
X64973200Y101422200D01*
X64973200Y101422200D02*
X64973200Y109042200D01*
X64973200Y109042200D02*
X64973200Y116662200D01*
X64973200Y116662200D02*
X64973200Y124282200D01*
X64973200Y124282200D02*
X64973200Y131902200D01*
X64973200Y131902200D02*
X64973200Y139395200D01*
X64973200Y139395200D02*
X64973200Y147015200D01*
X64973200Y17856200D02*
X64973200Y25222200D01*
X82651600Y9402000D02*
X82651600Y15163800D01*
X82651600Y15163800D02*
X79959200Y17856200D01*
X79959200Y17856200D02*
X79959200Y25222200D01*
X79959200Y25222200D02*
X79959200Y32842200D01*
X79959200Y32842200D02*
X79959200Y40462200D01*
X79959200Y40462200D02*
X79959200Y48082200D01*
X79959200Y48082200D02*
X79959200Y55702200D01*
X79959200Y55702200D02*
X79959200Y63322200D01*
X79959200Y63322200D02*
X79959200Y70942200D01*
X79959200Y70942200D02*
X79959200Y78562200D01*
X79959200Y78562200D02*
X79959200Y86182200D01*
X79959200Y86182200D02*
X79959200Y93802200D01*
X79959200Y93802200D02*
X79959200Y101422200D01*
X79959200Y101422200D02*
X79959200Y109042200D01*
X79959200Y109042200D02*
X79959200Y116662200D01*
X79959200Y116662200D02*
X79959200Y124282200D01*
X79959200Y124282200D02*
X79959200Y131902200D01*
X79959200Y131902200D02*
X79959200Y139395200D01*
X79959200Y139395200D02*
X79959200Y147015200D01*
X61036200Y3251200D02*
X58062000Y3251200D01*
X58062000Y3251200D02*
X57251600Y4061600D01*
X57251600Y6066600D02*
X57251600Y4061600D01*
X76403200Y25222200D02*
X76403200Y32842200D01*
X76403200Y32842200D02*
X76403200Y40462200D01*
X76403200Y40462200D02*
X76403200Y48082200D01*
X76403200Y48082200D02*
X76403200Y55702200D01*
X76403200Y55702200D02*
X76403200Y63322200D01*
X76403200Y63322200D02*
X76403200Y70942200D01*
X76403200Y70942200D02*
X76403200Y78562200D01*
X76403200Y78562200D02*
X76403200Y86182200D01*
X76403200Y86182200D02*
X76403200Y93802200D01*
X76403200Y93802200D02*
X76403200Y101422200D01*
X76403200Y101422200D02*
X76403200Y109042200D01*
X76403200Y109042200D02*
X76403200Y116662200D01*
X76403200Y116662200D02*
X76403200Y124282200D01*
X76403200Y124282200D02*
X76403200Y131902200D01*
X76403200Y131902200D02*
X76403200Y139395200D01*
X76403200Y139395200D02*
X76403200Y147015200D01*
X76403200Y17856200D02*
X76403200Y25222200D01*
X91389200Y17856200D02*
X91389200Y11809600D01*
X91389200Y11809600D02*
X88981600Y9402000D01*
X88981600Y9402000D02*
X87731600Y9402000D01*
X91389200Y139395200D02*
X91389200Y147015200D01*
X91389200Y131902200D02*
X91389200Y139395200D01*
X91389200Y124282200D02*
X91389200Y131902200D01*
X91389200Y116662200D02*
X91389200Y124282200D01*
X91389200Y109042200D02*
X91389200Y116662200D01*
X91389200Y101422200D02*
X91389200Y109042200D01*
X91389200Y93802200D02*
X91389200Y101422200D01*
X91389200Y86182200D02*
X91389200Y93802200D01*
X91389200Y78562200D02*
X91389200Y86182200D01*
X91389200Y70942200D02*
X91389200Y78562200D01*
X91389200Y63322200D02*
X91389200Y70942200D01*
X91389200Y55702200D02*
X91389200Y63322200D01*
X91389200Y48082200D02*
X91389200Y55702200D01*
X91389200Y40462200D02*
X91389200Y48082200D01*
X91389200Y32842200D02*
X91389200Y40462200D01*
X91389200Y25222200D02*
X91389200Y32842200D01*
X91389200Y17856200D02*
X91389200Y25222200D01*
X65182000Y1981200D02*
X76911200Y1981200D01*
X59791600Y9376600D02*
X59791600Y7371600D01*
X59791600Y7371600D02*
X65182000Y1981200D01*
X87833200Y139395200D02*
X87833200Y147015200D01*
X87833200Y131902200D02*
X87833200Y139395200D01*
X87833200Y124282200D02*
X87833200Y131902200D01*
X87833200Y116662200D02*
X87833200Y124282200D01*
X87833200Y109042200D02*
X87833200Y116662200D01*
X87833200Y101422200D02*
X87833200Y109042200D01*
X87833200Y32842200D02*
X87833200Y40462200D01*
X87833200Y25222200D02*
X87833200Y32842200D01*
X87833200Y17856200D02*
X87833200Y25222200D01*
X87833200Y48082200D02*
X87833200Y55702200D01*
X87833200Y40462200D02*
X87833200Y48082200D01*
X87833200Y63322200D02*
X87833200Y70942200D01*
X87833200Y55702200D02*
X87833200Y63322200D01*
X87833200Y78562200D02*
X87833200Y86182200D01*
X87833200Y70942200D02*
X87833200Y78562200D01*
X87833200Y93802200D02*
X87833200Y101422200D01*
X87833200Y86182200D02*
X87833200Y93802200D01*
X15316200Y15316200D02*
X19151600Y11480800D01*
X19151600Y11480800D02*
X19151600Y6066600D01*
X15316200Y17856200D02*
X15316200Y15316200D01*
X15316200Y132156200D02*
X15316200Y131902200D01*
X15316200Y131902200D02*
X15316200Y124536200D01*
X15316200Y124536200D02*
X15316200Y124282200D01*
X15316200Y124282200D02*
X15316200Y116916200D01*
X15316200Y116916200D02*
X15316200Y109296200D01*
X15316200Y109296200D02*
X15316200Y101676200D01*
X15316200Y101676200D02*
X15316200Y94056200D01*
X15316200Y94056200D02*
X15316200Y86436200D01*
X15316200Y86436200D02*
X15316200Y78816200D01*
X15316200Y78816200D02*
X15316200Y71196200D01*
X15316200Y71196200D02*
X15316200Y63576200D01*
X15316200Y63576200D02*
X15316200Y55702200D01*
X15316200Y55702200D02*
X15316200Y48082200D01*
X15316200Y48082200D02*
X15316200Y39954200D01*
X15316200Y39954200D02*
X15316200Y33096200D01*
X15316200Y33096200D02*
X15316200Y25476200D01*
X15316200Y25476200D02*
X15316200Y17856200D01*
X15316200Y139776200D02*
X15316200Y132156200D01*
X15316200Y146761200D02*
X15316200Y139776200D01*
X37541200Y14681200D02*
X41986200Y14681200D01*
X41986200Y14681200D02*
X43891200Y16586200D01*
X43891200Y16586200D02*
X43891200Y17856200D01*
X32736600Y6066600D02*
X37541200Y10871200D01*
X29311600Y6066600D02*
X32736600Y6066600D01*
X43891200Y131902200D02*
X43891200Y124282200D01*
X43891200Y124282200D02*
X43891200Y116662200D01*
X43891200Y116662200D02*
X43891200Y109042200D01*
X43891200Y109042200D02*
X43891200Y101422200D01*
X43891200Y101422200D02*
X43891200Y93802200D01*
X43891200Y93802200D02*
X43891200Y86182200D01*
X43891200Y86182200D02*
X43891200Y78562200D01*
X43891200Y78562200D02*
X43891200Y70942200D01*
X43891200Y70942200D02*
X43891200Y63322200D01*
X43891200Y63322200D02*
X43891200Y55702200D01*
X43891200Y55702200D02*
X43891200Y48082200D01*
X43891200Y48082200D02*
X43891200Y40462200D01*
X43891200Y40462200D02*
X43891200Y32842200D01*
X43891200Y32842200D02*
X43891200Y25222200D01*
X43891200Y25222200D02*
X43891200Y17856200D01*
X43891200Y147015200D02*
X43891200Y139395200D01*
X43891200Y139395200D02*
X43891200Y131902200D01*
X32461200Y17856200D02*
X32461200Y16459200D01*
X32461200Y16459200D02*
X30048200Y14046200D01*
X30048200Y14046200D02*
X25984200Y14046200D01*
X25984200Y14046200D02*
X24231600Y12293600D01*
X24231600Y12293600D02*
X24231600Y6066600D01*
X32461200Y139395200D02*
X32461200Y131902200D01*
X32461200Y147015200D02*
X32461200Y139395200D01*
X32461200Y25222200D02*
X32461200Y17856200D01*
X32461200Y32842200D02*
X32461200Y25222200D01*
X32461200Y40462200D02*
X32461200Y32842200D01*
X32461200Y48082200D02*
X32461200Y40462200D01*
X32461200Y55702200D02*
X32461200Y48082200D01*
X32461200Y63322200D02*
X32461200Y55702200D01*
X32461200Y70942200D02*
X32461200Y63322200D01*
X32461200Y78562200D02*
X32461200Y70942200D01*
X32461200Y86182200D02*
X32461200Y78562200D01*
X32461200Y93802200D02*
X32461200Y86182200D01*
X32461200Y101422200D02*
X32461200Y93802200D01*
X32461200Y109042200D02*
X32461200Y101422200D01*
X32461200Y116662200D02*
X32461200Y109042200D01*
X32461200Y124282200D02*
X32461200Y116662200D01*
X32461200Y131902200D02*
X32461200Y124282200D01*
X69951600Y6092000D02*
X67085400Y6092000D01*
X67085400Y6092000D02*
X61036200Y12141200D01*
X61036200Y12141200D02*
X55321200Y17856200D01*
X55321200Y139395200D02*
X55321200Y131902200D01*
X55321200Y147015200D02*
X55321200Y139395200D01*
X55321200Y25222200D02*
X55321200Y17856200D01*
X55321200Y32842200D02*
X55321200Y25222200D01*
X55321200Y40462200D02*
X55321200Y32842200D01*
X55321200Y48082200D02*
X55321200Y40462200D01*
X55321200Y55702200D02*
X55321200Y48082200D01*
X55321200Y63322200D02*
X55321200Y55702200D01*
X55321200Y70942200D02*
X55321200Y63322200D01*
X55321200Y78562200D02*
X55321200Y70942200D01*
X55321200Y86182200D02*
X55321200Y78562200D01*
X55321200Y93802200D02*
X55321200Y86182200D01*
X55321200Y101422200D02*
X55321200Y93802200D01*
X55321200Y109042200D02*
X55321200Y101422200D01*
X55321200Y116662200D02*
X55321200Y109042200D01*
X55321200Y124282200D02*
X55321200Y116662200D01*
X55321200Y131902200D02*
X55321200Y124282200D01*
X66751200Y17856200D02*
X70307200Y14300200D01*
X70307200Y14300200D02*
X71196200Y14300200D01*
X75031600Y6092000D02*
X75031600Y10464800D01*
X75031600Y10464800D02*
X71196200Y14300200D01*
X66751200Y131902200D02*
X66751200Y124282200D01*
X66751200Y124282200D02*
X66751200Y116662200D01*
X66751200Y116662200D02*
X66751200Y109042200D01*
X66751200Y109042200D02*
X66751200Y101422200D01*
X66751200Y101422200D02*
X66751200Y93802200D01*
X66751200Y93802200D02*
X66751200Y86182200D01*
X66751200Y86182200D02*
X66751200Y78562200D01*
X66751200Y78562200D02*
X66751200Y70942200D01*
X66751200Y70942200D02*
X66751200Y63322200D01*
X66751200Y63322200D02*
X66751200Y55702200D01*
X66751200Y55702200D02*
X66751200Y48082200D01*
X66751200Y48082200D02*
X66751200Y40462200D01*
X66751200Y40462200D02*
X66751200Y32842200D01*
X66751200Y32842200D02*
X66751200Y25222200D01*
X66751200Y25222200D02*
X66751200Y17856200D01*
X66751200Y147015200D02*
X66751200Y139395200D01*
X66751200Y139395200D02*
X66751200Y131902200D01*
X80086200Y13792200D02*
X78181200Y15697200D01*
X78181200Y15697200D02*
X78181200Y17856200D01*
X80086200Y8122400D02*
X80086200Y13792200D01*
X80111600Y6092000D02*
X80111600Y8097000D01*
X80111600Y8097000D02*
X80086200Y8122400D01*
X78181200Y25222200D02*
X78181200Y17856200D01*
X78181200Y32842200D02*
X78181200Y25222200D01*
X78181200Y40462200D02*
X78181200Y32842200D01*
X78181200Y48082200D02*
X78181200Y40462200D01*
X78181200Y55702200D02*
X78181200Y48082200D01*
X78181200Y131902200D02*
X78181200Y124282200D01*
X78181200Y124282200D02*
X78181200Y116662200D01*
X78181200Y116662200D02*
X78181200Y109042200D01*
X78181200Y109042200D02*
X78181200Y101422200D01*
X78181200Y101422200D02*
X78181200Y93802200D01*
X78181200Y93802200D02*
X78181200Y86182200D01*
X78181200Y86182200D02*
X78181200Y78562200D01*
X78181200Y78562200D02*
X78181200Y70942200D01*
X78181200Y70942200D02*
X78181200Y63322200D01*
X78181200Y63322200D02*
X78181200Y55702200D01*
X78181200Y147015200D02*
X78181200Y139395200D01*
X78181200Y139395200D02*
X78181200Y131902200D01*
X86182200Y12522200D02*
X85191600Y11531600D01*
X85191600Y11531600D02*
X85191600Y6092000D01*
X88214200Y12522200D02*
X86182200Y12522200D01*
X89611200Y13919200D02*
X88214200Y12522200D01*
X89611200Y17856200D02*
X89611200Y13919200D01*
X89611200Y25222200D02*
X89611200Y17856200D01*
X89611200Y32842200D02*
X89611200Y25222200D01*
X89611200Y40462200D02*
X89611200Y32842200D01*
X89611200Y48082200D02*
X89611200Y40462200D01*
X89611200Y55702200D02*
X89611200Y48082200D01*
X89611200Y63322200D02*
X89611200Y55702200D01*
X89611200Y70942200D02*
X89611200Y63322200D01*
X89611200Y78562200D02*
X89611200Y70942200D01*
X89611200Y86182200D02*
X89611200Y78562200D01*
X89611200Y93802200D02*
X89611200Y86182200D01*
X89611200Y101422200D02*
X89611200Y93802200D01*
X89611200Y109042200D02*
X89611200Y101422200D01*
X89611200Y116662200D02*
X89611200Y109042200D01*
X89611200Y124282200D02*
X89611200Y116662200D01*
X89611200Y131902200D02*
X89611200Y124282200D01*
X89611200Y139395200D02*
X89611200Y131902200D01*
X89611200Y147015200D02*
X89611200Y139395200D01*
D16*
X22602000Y33121600D02*
X25247600Y33121600D01*
X25247600Y33121600D02*
X25984200Y33858200D01*
X25912000Y35661600D02*
X27228800Y35661600D01*
X28016200Y36449000D02*
X28016200Y38176200D01*
X27228800Y35661600D02*
X28016200Y36449000D01*
X22602000Y38201600D02*
X22602000Y39112000D01*
X24206200Y46050200D02*
X24206200Y49479200D01*
X22936200Y44780200D02*
X24206200Y46050200D01*
X22936200Y39446200D02*
X22936200Y44780200D01*
X22602000Y39112000D02*
X22936200Y39446200D01*
X22602000Y38201600D02*
X22707600Y38201600D01*
X25912000Y40741600D02*
X27660600Y40741600D01*
X28016200Y41097200D02*
X28016200Y57099200D01*
X27660600Y40741600D02*
X28016200Y41097200D01*
X22602000Y73761600D02*
X24180800Y73761600D01*
X24714200Y73228200D02*
X24714200Y66751200D01*
X24180800Y73761600D02*
X24714200Y73228200D01*
X25912000Y76301600D02*
X27101800Y76301600D01*
X27101800Y76301600D02*
X28016200Y75387200D01*
X28016200Y75387200D02*
X28016200Y74371200D01*
X22602000Y78841600D02*
X27279600Y78841600D01*
X27279600Y78841600D02*
X28270200Y79832200D01*
X25912000Y81381600D02*
X25912000Y82427000D01*
X25912000Y82427000D02*
X28016200Y84531200D01*
X22602000Y83921600D02*
X22602000Y84832000D01*
X24206200Y90881200D02*
X24206200Y95199200D01*
X23063200Y89738200D02*
X24206200Y90881200D01*
X23063200Y85293200D02*
X23063200Y89738200D01*
X22602000Y84832000D02*
X23063200Y85293200D01*
X25912000Y86461600D02*
X25912000Y88523000D01*
X28016200Y90627200D02*
X28016200Y102819200D01*
X25912000Y88523000D02*
X28016200Y90627200D01*
X27355800Y122021600D02*
X28016200Y121361200D01*
X28016200Y121361200D02*
X28016200Y120345200D01*
X25912000Y122021600D02*
X27355800Y122021600D01*
X22602000Y124561600D02*
X27787600Y124561600D01*
X27787600Y124561600D02*
X28651200Y125425200D01*
X27917001Y127612001D02*
X28524200Y128219200D01*
X28524200Y128219200D02*
X28524200Y130251200D01*
X27406600Y127101600D02*
X27917001Y127612001D01*
X25912000Y127101600D02*
X27406600Y127101600D01*
X24333200Y136982200D02*
X25095200Y137744200D01*
X23063200Y135712200D02*
X24333200Y136982200D01*
X23063200Y131902200D02*
X23063200Y135712200D01*
X22602000Y131441000D02*
X23063200Y131902200D01*
X22602000Y129641600D02*
X22602000Y131441000D01*
X25095200Y137744200D02*
X25095200Y140792200D01*
X27889200Y146634200D02*
X27889200Y148285200D01*
X27889200Y135658800D02*
X27889200Y146634200D01*
X25912000Y132181600D02*
X25912000Y133681600D01*
X25912000Y133681600D02*
X27889200Y135658800D01*
M02*
