PCBNEW-LibModule-V1  
# encoding utf-8
Units mm
$INDEX
TO127P254X533-3
$EndINDEX
$MODULE TO127P254X533-3
Po 0 0 0 15 00000000 00000000 ~~
Li TO127P254X533-3
Cd 
Sc 00000000
At STD
Op 0 0 0
.SolderMask 0
.SolderPaste 0
T0 -1.80424 -2.89695 1.64077 1.64077 0 0.05 N V 21 "TO127P254X533-3"
T1 -1.65287 4.95862 1.64186 1.64186 0 0.05 N V 21 "VAL**"
DS -1.4478 2.8448 -1.0414 2.8448 0.1524 21
DA -1.27958 1.27977 1.3208 1.27 -2050 0 21
DA -1.38407 1.26864 1.0668 2.413 -250 0 21
DS -3.3274 2.8448 0.7874 2.8448 0.1524 24
DA -1.27 1.2661 0.7874 2.8448 -2550 0 24
$PAD
Sh "1" R 1.4986 1.4986 0 0 0
Dr 0.9906 0 0
At STD N 00E0FFFF
.SolderMask 0
Ne 0 ""
Po -2.54 2.54
$EndPAD
$PAD
Sh "2" C 1.4986 1.4986 0 0 0
Dr 0.9906 0 0
At STD N 00E0FFFF
.SolderMask 0
Ne 0 ""
Po -1.27 0
$EndPAD
$PAD
Sh "3" C 1.4986 1.4986 0 0 0
Dr 0.9906 0 0
At STD N 00E0FFFF
.SolderMask 0
Ne 0 ""
Po 0 2.54
$EndPAD
$EndMODULE TO127P254X533-3
