PCBNEW-LibModule-V1  
# encoding utf-8
Units mm
$INDEX
TO-252-3
$EndINDEX
$MODULE TO-252-3
Po 0 0 0 15 00000000 00000000 ~~
Li TO-252-3
Cd <b>Description:</b> Standard TO-252-3 Package. Also known as DPAK<br/>
Sc 00000000
At SMD
Op 0 0 0
.SolderMask 0
.SolderPaste 0
T0 -2.17737 -4.6127 0.640875 0.640875 0 0.05 N V 21 "TO-252-3"
T1 0 0 1 0.9 0 0.05 N H 21 "VAL**"
DS -3.8 -3.8 3.8 -3.8 0.127 21
DS 3.8 -3.8 3.8 8.6 0.127 21
DS 3.8 8.6 -3.8 8.6 0.127 21
DS -3.8 8.6 -3.8 -3.8 0.127 21
$PAD
Sh "PAD" R 6.7 6.7 0 0 0
At SMD N 00888000
.SolderMask 0
.SolderPaste 0
Ne 0 ""
Po 0 0
$EndPAD
$PAD
Sh "1" R 3 1.6 0 0 900
At SMD N 00888000
.SolderMask 0
.SolderPaste 0
Ne 0 ""
Po -2.3 6.65
$EndPAD
$PAD
Sh "2" R 3 1.6 0 0 900
At SMD N 00888000
.SolderMask 0
.SolderPaste 0
Ne 0 ""
Po 2.3 6.65
$EndPAD
$EndMODULE TO-252-3
