(module MOLEX_67600-8001_SD_CARD_TERMINAL (layer F.Cu) (tedit 5A3AC32C)
  (fp_text reference REF** (at -0.254 1.778) (layer F.SilkS)
    (effects (font (size 1 1) (thickness 0.15)))
  )
  (fp_text value MOLEX_676008001_SD (at 0 -0.5) (layer F.Fab)
    (effects (font (size 1 1) (thickness 0.15)))
  )
  (fp_line (start 14.478 -7.874) (end 14.478 5.08) (layer F.SilkS) (width 0.15))
  (fp_line (start 13.462 -19.812) (end 14.478 -19.812) (layer F.SilkS) (width 0.15))
  (fp_line (start 14.478 -19.812) (end 14.478 -10.414) (layer F.SilkS) (width 0.15))
  (fp_line (start -5.842 -15.748) (end -8.382 -13.208) (layer F.SilkS) (width 0.15))
  (fp_line (start -8.382 -13.208) (end -8.382 -5.08) (layer F.SilkS) (width 0.15))
  (fp_line (start -8.382 -5.08) (end -6.604 -3.302) (layer F.SilkS) (width 0.15))
  (fp_line (start -6.604 -3.302) (end 8.382 -3.302) (layer F.SilkS) (width 0.15))
  (fp_line (start 8.382 -3.302) (end 10.414 -5.334) (layer F.SilkS) (width 0.15))
  (fp_line (start 10.414 -5.334) (end 10.414 -13.208) (layer F.SilkS) (width 0.15))
  (fp_line (start 10.414 -13.208) (end 8.128 -15.748) (layer F.SilkS) (width 0.15))
  (fp_line (start 8.128 -15.748) (end -5.842 -15.748) (layer F.SilkS) (width 0.15))
  (fp_line (start -9.398 -19.812) (end -8.636 -19.812) (layer F.SilkS) (width 0.15))
  (fp_line (start -8.636 -19.812) (end -5.588 -17.272) (layer F.SilkS) (width 0.15))
  (fp_line (start -5.588 -17.272) (end 6.096 -17.272) (layer F.SilkS) (width 0.15))
  (fp_line (start 6.096 -17.272) (end 9.906 -19.812) (layer F.SilkS) (width 0.15))
  (fp_line (start 9.906 -19.812) (end 11.176 -19.812) (layer F.SilkS) (width 0.15))
  (fp_line (start -11.684 9.144) (end -11.684 10.414) (layer F.SilkS) (width 0.15))
  (fp_line (start -11.684 10.414) (end -12.954 10.414) (layer F.SilkS) (width 0.15))
  (fp_line (start -12.954 10.414) (end -13.208 10.414) (layer F.SilkS) (width 0.15))
  (fp_line (start -13.208 10.414) (end -12.954 -19.812) (layer F.SilkS) (width 0.15))
  (fp_line (start -12.954 -19.812) (end -11.684 -19.812) (layer F.SilkS) (width 0.15))
  (fp_line (start 12.954 10.414) (end 14.478 10.414) (layer F.SilkS) (width 0.15))
  (fp_line (start 14.478 10.414) (end 14.478 7.112) (layer F.SilkS) (width 0.15))
  (fp_line (start 12.954 10.414) (end 12.954 8.636) (layer F.SilkS) (width 0.15))
  (fp_line (start 12.954 8.636) (end 11.43 8.636) (layer F.SilkS) (width 0.15))
  (pad 10 smd rect (at 14.57452 6.09092) (size 1.4 1.4) (layers F.Cu F.Paste F.Mask))
  (pad 11 smd rect (at 14.4399 -9.17448) (size 1.5 1.8) (layers F.Cu F.Paste F.Mask))
  (pad 13 smd rect (at 12.5095 -18.23466) (size 1.55 2.9) (layers F.Cu F.Paste F.Mask))
  (pad 12 smd rect (at -10.55624 -18.23466) (size 1.55 2.9) (layers F.Cu F.Paste F.Mask))
  (pad 8 smd rect (at 10.72134 9.77138) (size 0.8 1.6) (layers F.Cu F.Paste F.Mask))
  (pad 7 smd rect (at 9.09828 9.77138) (size 0.8 1.6) (layers F.Cu F.Paste F.Mask))
  (pad 6 smd rect (at 6.59638 9.79678) (size 1.3 1.6) (layers F.Cu F.Paste F.Mask))
  (pad 5 smd rect (at 4.09448 9.78916) (size 1.3 1.6) (layers F.Cu F.Paste F.Mask))
  (pad 4 smd rect (at 1.59766 9.79678) (size 1.3 1.6) (layers F.Cu F.Paste F.Mask))
  (pad 3 smd rect (at -0.90678 9.79424) (size 1.3 1.6) (layers F.Cu F.Paste F.Mask))
  (pad 2 smd rect (at -3.40106 9.79424) (size 1.3 1.6) (layers F.Cu F.Paste F.Mask))
  (pad 1 smd rect (at -5.90296 9.80186) (size 1.3 1.6) (layers F.Cu F.Paste F.Mask))
  (pad 9 smd rect (at -8.39978 9.77646) (size 1.3 1.6) (layers F.Cu F.Paste F.Mask))
  (pad 14 smd rect (at -10.6807 8.52424) (size 1.7 1) (layers F.Cu F.Paste F.Mask))
)
